-------------------------------------------------------------------------------
Test set: com.aptitest.WtOnlineTestBackendApplicationTests
-------------------------------------------------------------------------------
Tests run: 1, Failures: 0, Errors: 0, Skipped: 0, Time elapsed: 6.34 sec - in com.aptitest.WtOnlineTestBackendApplicationTests
