C:\Wt-Project\wt-online-test-backend\src\main\java\com\aptitest\dao\UserDao.java
C:\Wt-Project\wt-online-test-backend\src\main\java\com\aptitest\controllers\TestController.java
C:\Wt-Project\wt-online-test-backend\src\main\java\com\aptitest\WtOnlineTestBackendApplication.java
C:\Wt-Project\wt-online-test-backend\src\main\java\com\aptitest\models\Test.java
C:\Wt-Project\wt-online-test-backend\src\main\java\com\aptitest\controllers\UserController.java
C:\Wt-Project\wt-online-test-backend\src\main\java\com\aptitest\dao\QuestionDao.java
C:\Wt-Project\wt-online-test-backend\src\main\java\com\aptitest\dao\TestDao.java
C:\Wt-Project\wt-online-test-backend\src\main\java\com\aptitest\models\User.java
C:\Wt-Project\wt-online-test-backend\src\main\java\com\aptitest\controllers\QuestionController.java
C:\Wt-Project\wt-online-test-backend\src\main\java\com\aptitest\models\Question.java
